^E:\MPDP\CA2\TOMPATZIL-CA2\TOMPATZIL-CA2\ANIMATION.CPP|E:\MPDP\CA2\TOMPATZIL-CA2\TOMPATZIL-CA2\APPLICATION.CPP|E:\MPDP\CA2\TOMPATZIL-CA2\TOMPATZIL-CA2\BLOOMEFFECT.CPP|E:\MPDP\CA2\TOMPATZIL-CA2\TOMPATZIL-CA2\BUTTON.CPP|E:\MPDP\CA2\TOMPATZIL-CA2\TOMPATZIL-CA2\COMMAND.CPP|E:\MPDP\CA2\TOMPATZIL-CA2\TOMPATZIL-CA2\COMMANDQUEUE.CPP|E:\MPDP\CA2\TOMPATZIL-CA2\TOMPATZIL-CA2\COMPONENT.CPP|E:\MPDP\CA2\TOMPATZIL-CA2\TOMPATZIL-CA2\CONTAINER.CPP|E:\MPDP\CA2\TOMPATZIL-CA2\TOMPATZIL-CA2\DATATABLES.CPP|E:\MPDP\CA2\TOMPATZIL-CA2\TOMPATZIL-CA2\EMITTERNODE.CPP|E:\MPDP\CA2\TOMPATZIL-CA2\TOMPATZIL-CA2\ENTITY.CPP|E:\MPDP\CA2\TOMPATZIL-CA2\TOMPATZIL-CA2\GAMEOVERSTATE.CPP|E:\MPDP\CA2\TOMPATZIL-CA2\TOMPATZIL-CA2\GAMESERVER.CPP|E:\MPDP\CA2\TOMPATZIL-CA2\TOMPATZIL-CA2\GAMESTATE.CPP|E:\MPDP\CA2\TOMPATZIL-CA2\TOMPATZIL-CA2\KEYBINDING.CPP|E:\MPDP\CA2\TOMPATZIL-CA2\TOMPATZIL-CA2\LABEL.CPP|E:\MPDP\CA2\TOMPATZIL-CA2\TOMPATZIL-CA2\MAIN.CPP|E:\MPDP\CA2\TOMPATZIL-CA2\TOMPATZIL-CA2\MENUSTATE.CPP|E:\MPDP\CA2\TOMPATZIL-CA2\TOMPATZIL-CA2\MULTIPLAYERGAMESTATE.CPP|E:\MPDP\CA2\TOMPATZIL-CA2\TOMPATZIL-CA2\MUSICPLAYER.CPP|E:\MPDP\CA2\TOMPATZIL-CA2\TOMPATZIL-CA2\NETWORKNODE.CPP|E:\MPDP\CA2\TOMPATZIL-CA2\TOMPATZIL-CA2\PARTICLENODE.CPP|E:\MPDP\CA2\TOMPATZIL-CA2\TOMPATZIL-CA2\PAUSESTATE.CPP|E:\MPDP\CA2\TOMPATZIL-CA2\TOMPATZIL-CA2\PICKUP.CPP|E:\MPDP\CA2\TOMPATZIL-CA2\TOMPATZIL-CA2\PLAYER.CPP|E:\MPDP\CA2\TOMPATZIL-CA2\TOMPATZIL-CA2\POSTEFFECT.CPP|E:\MPDP\CA2\TOMPATZIL-CA2\TOMPATZIL-CA2\PROJECTILE.CPP|E:\MPDP\CA2\TOMPATZIL-CA2\TOMPATZIL-CA2\SCENENODE.CPP|E:\MPDP\CA2\TOMPATZIL-CA2\TOMPATZIL-CA2\SETTINGSSTATE.CPP|E:\MPDP\CA2\TOMPATZIL-CA2\TOMPATZIL-CA2\SOUNDNODE.CPP|E:\MPDP\CA2\TOMPATZIL-CA2\TOMPATZIL-CA2\SOUNDPLAYER.CPP|E:\MPDP\CA2\TOMPATZIL-CA2\TOMPATZIL-CA2\SPRITENODE.CPP|E:\MPDP\CA2\TOMPATZIL-CA2\TOMPATZIL-CA2\STATE.CPP|E:\MPDP\CA2\TOMPATZIL-CA2\TOMPATZIL-CA2\STATESTACK.CPP|E:\MPDP\CA2\TOMPATZIL-CA2\TOMPATZIL-CA2\TEXTNODE.CPP|E:\MPDP\CA2\TOMPATZIL-CA2\TOMPATZIL-CA2\TITLESTATE.CPP|E:\MPDP\CA2\TOMPATZIL-CA2\TOMPATZIL-CA2\TROOPER.CPP|E:\MPDP\CA2\TOMPATZIL-CA2\TOMPATZIL-CA2\TROOPER.HPP|E:\MPDP\CA2\TOMPATZIL-CA2\TOMPATZIL-CA2\UTILITY.CPP|E:\MPDP\CA2\TOMPATZIL-CA2\TOMPATZIL-CA2\WORLD.CPP
E:\MPDP\CA2\TOMPATZIL-CA2\TOMPATZIL-CA2\DEBUG\VC141.PDB
E:\MPDP\CA2\TOMPATZIL-CA2\TOMPATZIL-CA2\DEBUG\VC141.IDB
E:\MPDP\CA2\TOMPATZIL-CA2\TOMPATZIL-CA2\DEBUG\PAUSESTATE.OBJ
E:\MPDP\CA2\TOMPATZIL-CA2\TOMPATZIL-CA2\DEBUG\POSTEFFECT.OBJ
E:\MPDP\CA2\TOMPATZIL-CA2\TOMPATZIL-CA2\DEBUG\SETTINGSSTATE.OBJ
E:\MPDP\CA2\TOMPATZIL-CA2\TOMPATZIL-CA2\DEBUG\SOUNDPLAYER.OBJ
E:\MPDP\CA2\TOMPATZIL-CA2\TOMPATZIL-CA2\DEBUG\SPRITENODE.OBJ
E:\MPDP\CA2\TOMPATZIL-CA2\TOMPATZIL-CA2\DEBUG\STATE.OBJ
E:\MPDP\CA2\TOMPATZIL-CA2\TOMPATZIL-CA2\DEBUG\STATESTACK.OBJ
E:\MPDP\CA2\TOMPATZIL-CA2\TOMPATZIL-CA2\DEBUG\TITLESTATE.OBJ
E:\MPDP\CA2\TOMPATZIL-CA2\TOMPATZIL-CA2\DEBUG\UTILITY.OBJ
E:\MPDP\CA2\TOMPATZIL-CA2\TOMPATZIL-CA2\DEBUG\ANIMATION.OBJ
E:\MPDP\CA2\TOMPATZIL-CA2\TOMPATZIL-CA2\DEBUG\BLOOMEFFECT.OBJ
E:\MPDP\CA2\TOMPATZIL-CA2\TOMPATZIL-CA2\DEBUG\BUTTON.OBJ
E:\MPDP\CA2\TOMPATZIL-CA2\TOMPATZIL-CA2\DEBUG\COMMAND.OBJ
E:\MPDP\CA2\TOMPATZIL-CA2\TOMPATZIL-CA2\DEBUG\COMPONENT.OBJ
E:\MPDP\CA2\TOMPATZIL-CA2\TOMPATZIL-CA2\DEBUG\CONTAINER.OBJ
E:\MPDP\CA2\TOMPATZIL-CA2\TOMPATZIL-CA2\DEBUG\GAMEOVERSTATE.OBJ
E:\MPDP\CA2\TOMPATZIL-CA2\TOMPATZIL-CA2\DEBUG\KEYBINDING.OBJ
E:\MPDP\CA2\TOMPATZIL-CA2\TOMPATZIL-CA2\DEBUG\LABEL.OBJ
E:\MPDP\CA2\TOMPATZIL-CA2\TOMPATZIL-CA2\DEBUG\MAIN.OBJ
E:\MPDP\CA2\TOMPATZIL-CA2\TOMPATZIL-CA2\DEBUG\MENUSTATE.OBJ
E:\MPDP\CA2\TOMPATZIL-CA2\TOMPATZIL-CA2\DEBUG\MUSICPLAYER.OBJ
^E:\MPDP\CA2\TOMPATZIL-CA2\TOMPATZIL-CA2\ANIMATION.CPP
E:\MPDP\CA2\TOMPATZIL-CA2\TOMPATZIL-CA2\DEBUG\VC141.PDB
^E:\MPDP\CA2\TOMPATZIL-CA2\TOMPATZIL-CA2\APPLICATION.CPP
E:\MPDP\CA2\TOMPATZIL-CA2\TOMPATZIL-CA2\DEBUG\VC141.PDB
^E:\MPDP\CA2\TOMPATZIL-CA2\TOMPATZIL-CA2\BLOOMEFFECT.CPP
E:\MPDP\CA2\TOMPATZIL-CA2\TOMPATZIL-CA2\DEBUG\VC141.PDB
^E:\MPDP\CA2\TOMPATZIL-CA2\TOMPATZIL-CA2\BUTTON.CPP
E:\MPDP\CA2\TOMPATZIL-CA2\TOMPATZIL-CA2\DEBUG\VC141.PDB
^E:\MPDP\CA2\TOMPATZIL-CA2\TOMPATZIL-CA2\COMMAND.CPP
E:\MPDP\CA2\TOMPATZIL-CA2\TOMPATZIL-CA2\DEBUG\VC141.PDB
^E:\MPDP\CA2\TOMPATZIL-CA2\TOMPATZIL-CA2\COMMANDQUEUE.CPP
E:\MPDP\CA2\TOMPATZIL-CA2\TOMPATZIL-CA2\DEBUG\VC141.PDB
^E:\MPDP\CA2\TOMPATZIL-CA2\TOMPATZIL-CA2\COMPONENT.CPP
E:\MPDP\CA2\TOMPATZIL-CA2\TOMPATZIL-CA2\DEBUG\VC141.PDB
^E:\MPDP\CA2\TOMPATZIL-CA2\TOMPATZIL-CA2\CONTAINER.CPP
E:\MPDP\CA2\TOMPATZIL-CA2\TOMPATZIL-CA2\DEBUG\VC141.PDB
^E:\MPDP\CA2\TOMPATZIL-CA2\TOMPATZIL-CA2\DATATABLES.CPP
E:\MPDP\CA2\TOMPATZIL-CA2\TOMPATZIL-CA2\DEBUG\VC141.PDB
^E:\MPDP\CA2\TOMPATZIL-CA2\TOMPATZIL-CA2\EMITTERNODE.CPP
E:\MPDP\CA2\TOMPATZIL-CA2\TOMPATZIL-CA2\DEBUG\VC141.PDB
^E:\MPDP\CA2\TOMPATZIL-CA2\TOMPATZIL-CA2\ENTITY.CPP
E:\MPDP\CA2\TOMPATZIL-CA2\TOMPATZIL-CA2\DEBUG\VC141.PDB
^E:\MPDP\CA2\TOMPATZIL-CA2\TOMPATZIL-CA2\GAMEOVERSTATE.CPP
E:\MPDP\CA2\TOMPATZIL-CA2\TOMPATZIL-CA2\DEBUG\VC141.PDB
^E:\MPDP\CA2\TOMPATZIL-CA2\TOMPATZIL-CA2\GAMESERVER.CPP
E:\MPDP\CA2\TOMPATZIL-CA2\TOMPATZIL-CA2\DEBUG\VC141.PDB
^E:\MPDP\CA2\TOMPATZIL-CA2\TOMPATZIL-CA2\GAMESTATE.CPP
E:\MPDP\CA2\TOMPATZIL-CA2\TOMPATZIL-CA2\DEBUG\VC141.PDB
^E:\MPDP\CA2\TOMPATZIL-CA2\TOMPATZIL-CA2\KEYBINDING.CPP
E:\MPDP\CA2\TOMPATZIL-CA2\TOMPATZIL-CA2\DEBUG\VC141.PDB
^E:\MPDP\CA2\TOMPATZIL-CA2\TOMPATZIL-CA2\LABEL.CPP
E:\MPDP\CA2\TOMPATZIL-CA2\TOMPATZIL-CA2\DEBUG\VC141.PDB
^E:\MPDP\CA2\TOMPATZIL-CA2\TOMPATZIL-CA2\MAIN.CPP
E:\MPDP\CA2\TOMPATZIL-CA2\TOMPATZIL-CA2\DEBUG\VC141.PDB
^E:\MPDP\CA2\TOMPATZIL-CA2\TOMPATZIL-CA2\MENUSTATE.CPP
E:\MPDP\CA2\TOMPATZIL-CA2\TOMPATZIL-CA2\DEBUG\VC141.PDB
^E:\MPDP\CA2\TOMPATZIL-CA2\TOMPATZIL-CA2\MULTIPLAYERGAMESTATE.CPP
E:\MPDP\CA2\TOMPATZIL-CA2\TOMPATZIL-CA2\DEBUG\VC141.PDB
^E:\MPDP\CA2\TOMPATZIL-CA2\TOMPATZIL-CA2\MUSICPLAYER.CPP
E:\MPDP\CA2\TOMPATZIL-CA2\TOMPATZIL-CA2\DEBUG\VC141.PDB
^E:\MPDP\CA2\TOMPATZIL-CA2\TOMPATZIL-CA2\NETWORKNODE.CPP
E:\MPDP\CA2\TOMPATZIL-CA2\TOMPATZIL-CA2\DEBUG\VC141.PDB
^E:\MPDP\CA2\TOMPATZIL-CA2\TOMPATZIL-CA2\PARTICLENODE.CPP
E:\MPDP\CA2\TOMPATZIL-CA2\TOMPATZIL-CA2\DEBUG\VC141.PDB
^E:\MPDP\CA2\TOMPATZIL-CA2\TOMPATZIL-CA2\PAUSESTATE.CPP
E:\MPDP\CA2\TOMPATZIL-CA2\TOMPATZIL-CA2\DEBUG\VC141.PDB
^E:\MPDP\CA2\TOMPATZIL-CA2\TOMPATZIL-CA2\PICKUP.CPP
E:\MPDP\CA2\TOMPATZIL-CA2\TOMPATZIL-CA2\DEBUG\VC141.PDB
^E:\MPDP\CA2\TOMPATZIL-CA2\TOMPATZIL-CA2\PLAYER.CPP
E:\MPDP\CA2\TOMPATZIL-CA2\TOMPATZIL-CA2\DEBUG\VC141.PDB
^E:\MPDP\CA2\TOMPATZIL-CA2\TOMPATZIL-CA2\POSTEFFECT.CPP
E:\MPDP\CA2\TOMPATZIL-CA2\TOMPATZIL-CA2\DEBUG\VC141.PDB
^E:\MPDP\CA2\TOMPATZIL-CA2\TOMPATZIL-CA2\PROJECTILE.CPP
E:\MPDP\CA2\TOMPATZIL-CA2\TOMPATZIL-CA2\DEBUG\VC141.PDB
^E:\MPDP\CA2\TOMPATZIL-CA2\TOMPATZIL-CA2\SCENENODE.CPP
E:\MPDP\CA2\TOMPATZIL-CA2\TOMPATZIL-CA2\DEBUG\VC141.PDB
^E:\MPDP\CA2\TOMPATZIL-CA2\TOMPATZIL-CA2\SETTINGSSTATE.CPP
E:\MPDP\CA2\TOMPATZIL-CA2\TOMPATZIL-CA2\DEBUG\VC141.PDB
^E:\MPDP\CA2\TOMPATZIL-CA2\TOMPATZIL-CA2\SOUNDNODE.CPP
E:\MPDP\CA2\TOMPATZIL-CA2\TOMPATZIL-CA2\DEBUG\VC141.PDB
^E:\MPDP\CA2\TOMPATZIL-CA2\TOMPATZIL-CA2\SOUNDPLAYER.CPP
E:\MPDP\CA2\TOMPATZIL-CA2\TOMPATZIL-CA2\DEBUG\VC141.PDB
^E:\MPDP\CA2\TOMPATZIL-CA2\TOMPATZIL-CA2\SPRITENODE.CPP
E:\MPDP\CA2\TOMPATZIL-CA2\TOMPATZIL-CA2\DEBUG\VC141.PDB
^E:\MPDP\CA2\TOMPATZIL-CA2\TOMPATZIL-CA2\STATE.CPP
E:\MPDP\CA2\TOMPATZIL-CA2\TOMPATZIL-CA2\DEBUG\VC141.PDB
^E:\MPDP\CA2\TOMPATZIL-CA2\TOMPATZIL-CA2\STATESTACK.CPP
E:\MPDP\CA2\TOMPATZIL-CA2\TOMPATZIL-CA2\DEBUG\VC141.PDB
^E:\MPDP\CA2\TOMPATZIL-CA2\TOMPATZIL-CA2\TEXTNODE.CPP
E:\MPDP\CA2\TOMPATZIL-CA2\TOMPATZIL-CA2\DEBUG\VC141.PDB
^E:\MPDP\CA2\TOMPATZIL-CA2\TOMPATZIL-CA2\TITLESTATE.CPP
E:\MPDP\CA2\TOMPATZIL-CA2\TOMPATZIL-CA2\DEBUG\VC141.PDB
^E:\MPDP\CA2\TOMPATZIL-CA2\TOMPATZIL-CA2\TROOPER.CPP
E:\MPDP\CA2\TOMPATZIL-CA2\TOMPATZIL-CA2\DEBUG\VC141.PDB
^E:\MPDP\CA2\TOMPATZIL-CA2\TOMPATZIL-CA2\TROOPER.HPP
E:\MPDP\CA2\TOMPATZIL-CA2\TOMPATZIL-CA2\DEBUG\VC141.PDB
^E:\MPDP\CA2\TOMPATZIL-CA2\TOMPATZIL-CA2\UTILITY.CPP
E:\MPDP\CA2\TOMPATZIL-CA2\TOMPATZIL-CA2\DEBUG\VC141.PDB
^E:\MPDP\CA2\TOMPATZIL-CA2\TOMPATZIL-CA2\WORLD.CPP
E:\MPDP\CA2\TOMPATZIL-CA2\TOMPATZIL-CA2\DEBUG\VC141.PDB
^E:\MPDP\CA2\TOMPATZIL-CA2\TOMPATZIL-CA2\APPLICATION.CPP|E:\MPDP\CA2\TOMPATZIL-CA2\TOMPATZIL-CA2\COMMANDQUEUE.CPP|E:\MPDP\CA2\TOMPATZIL-CA2\TOMPATZIL-CA2\DATATABLES.CPP|E:\MPDP\CA2\TOMPATZIL-CA2\TOMPATZIL-CA2\EMITTERNODE.CPP|E:\MPDP\CA2\TOMPATZIL-CA2\TOMPATZIL-CA2\ENTITY.CPP|E:\MPDP\CA2\TOMPATZIL-CA2\TOMPATZIL-CA2\GAMESERVER.CPP|E:\MPDP\CA2\TOMPATZIL-CA2\TOMPATZIL-CA2\GAMESTATE.CPP|E:\MPDP\CA2\TOMPATZIL-CA2\TOMPATZIL-CA2\MULTIPLAYERGAMESTATE.CPP|E:\MPDP\CA2\TOMPATZIL-CA2\TOMPATZIL-CA2\NETWORKNODE.CPP|E:\MPDP\CA2\TOMPATZIL-CA2\TOMPATZIL-CA2\PARTICLENODE.CPP|E:\MPDP\CA2\TOMPATZIL-CA2\TOMPATZIL-CA2\PICKUP.CPP|E:\MPDP\CA2\TOMPATZIL-CA2\TOMPATZIL-CA2\PLAYER.CPP|E:\MPDP\CA2\TOMPATZIL-CA2\TOMPATZIL-CA2\PROJECTILE.CPP|E:\MPDP\CA2\TOMPATZIL-CA2\TOMPATZIL-CA2\SCENENODE.CPP|E:\MPDP\CA2\TOMPATZIL-CA2\TOMPATZIL-CA2\SOUNDNODE.CPP|E:\MPDP\CA2\TOMPATZIL-CA2\TOMPATZIL-CA2\TEXTNODE.CPP|E:\MPDP\CA2\TOMPATZIL-CA2\TOMPATZIL-CA2\TROOPER.CPP|E:\MPDP\CA2\TOMPATZIL-CA2\TOMPATZIL-CA2\TROOPER.HPP|E:\MPDP\CA2\TOMPATZIL-CA2\TOMPATZIL-CA2\WORLD.CPP
E:\MPDP\CA2\TOMPATZIL-CA2\TOMPATZIL-CA2\DEBUG\VC141.PDB
E:\MPDP\CA2\TOMPATZIL-CA2\TOMPATZIL-CA2\DEBUG\VC141.IDB
E:\MPDP\CA2\TOMPATZIL-CA2\TOMPATZIL-CA2\DEBUG\COMMANDQUEUE.OBJ
E:\MPDP\CA2\TOMPATZIL-CA2\TOMPATZIL-CA2\DEBUG\EMITTERNODE.OBJ
E:\MPDP\CA2\TOMPATZIL-CA2\TOMPATZIL-CA2\DEBUG\ENTITY.OBJ
E:\MPDP\CA2\TOMPATZIL-CA2\TOMPATZIL-CA2\DEBUG\PARTICLENODE.OBJ
E:\MPDP\CA2\TOMPATZIL-CA2\TOMPATZIL-CA2\DEBUG\PICKUP.OBJ
E:\MPDP\CA2\TOMPATZIL-CA2\TOMPATZIL-CA2\DEBUG\PROJECTILE.OBJ
E:\MPDP\CA2\TOMPATZIL-CA2\TOMPATZIL-CA2\DEBUG\SCENENODE.OBJ
E:\MPDP\CA2\TOMPATZIL-CA2\TOMPATZIL-CA2\DEBUG\TEXTNODE.OBJ
^E:\MPDP\CA2\TOMPATZIL-CA2\TOMPATZIL-CA2\APPLICATION.CPP|E:\MPDP\CA2\TOMPATZIL-CA2\TOMPATZIL-CA2\DATATABLES.CPP|E:\MPDP\CA2\TOMPATZIL-CA2\TOMPATZIL-CA2\GAMESERVER.CPP|E:\MPDP\CA2\TOMPATZIL-CA2\TOMPATZIL-CA2\GAMESTATE.CPP|E:\MPDP\CA2\TOMPATZIL-CA2\TOMPATZIL-CA2\MULTIPLAYERGAMESTATE.CPP|E:\MPDP\CA2\TOMPATZIL-CA2\TOMPATZIL-CA2\NETWORKNODE.CPP|E:\MPDP\CA2\TOMPATZIL-CA2\TOMPATZIL-CA2\PLAYER.CPP|E:\MPDP\CA2\TOMPATZIL-CA2\TOMPATZIL-CA2\SOUNDNODE.CPP|E:\MPDP\CA2\TOMPATZIL-CA2\TOMPATZIL-CA2\TROOPER.CPP|E:\MPDP\CA2\TOMPATZIL-CA2\TOMPATZIL-CA2\TROOPER.HPP|E:\MPDP\CA2\TOMPATZIL-CA2\TOMPATZIL-CA2\WORLD.CPP
E:\MPDP\CA2\TOMPATZIL-CA2\TOMPATZIL-CA2\DEBUG\VC141.PDB
E:\MPDP\CA2\TOMPATZIL-CA2\TOMPATZIL-CA2\DEBUG\VC141.IDB
^E:\MPDP\CA2\TOMPATZIL-CA2\TOMPATZIL-CA2\APPLICATION.CPP|E:\MPDP\CA2\TOMPATZIL-CA2\TOMPATZIL-CA2\COMMAND.CPP|E:\MPDP\CA2\TOMPATZIL-CA2\TOMPATZIL-CA2\COMMANDQUEUE.CPP|E:\MPDP\CA2\TOMPATZIL-CA2\TOMPATZIL-CA2\DATATABLES.CPP|E:\MPDP\CA2\TOMPATZIL-CA2\TOMPATZIL-CA2\EMITTERNODE.CPP|E:\MPDP\CA2\TOMPATZIL-CA2\TOMPATZIL-CA2\ENTITY.CPP|E:\MPDP\CA2\TOMPATZIL-CA2\TOMPATZIL-CA2\GAMEOVERSTATE.CPP|E:\MPDP\CA2\TOMPATZIL-CA2\TOMPATZIL-CA2\GAMESERVER.CPP|E:\MPDP\CA2\TOMPATZIL-CA2\TOMPATZIL-CA2\GAMESTATE.CPP|E:\MPDP\CA2\TOMPATZIL-CA2\TOMPATZIL-CA2\MAIN.CPP|E:\MPDP\CA2\TOMPATZIL-CA2\TOMPATZIL-CA2\MULTIPLAYERGAMESTATE.CPP|E:\MPDP\CA2\TOMPATZIL-CA2\TOMPATZIL-CA2\NETWORKNODE.CPP|E:\MPDP\CA2\TOMPATZIL-CA2\TOMPATZIL-CA2\PARTICLENODE.CPP|E:\MPDP\CA2\TOMPATZIL-CA2\TOMPATZIL-CA2\PICKUP.CPP|E:\MPDP\CA2\TOMPATZIL-CA2\TOMPATZIL-CA2\PLAYER.CPP|E:\MPDP\CA2\TOMPATZIL-CA2\TOMPATZIL-CA2\PROJECTILE.CPP|E:\MPDP\CA2\TOMPATZIL-CA2\TOMPATZIL-CA2\SCENENODE.CPP|E:\MPDP\CA2\TOMPATZIL-CA2\TOMPATZIL-CA2\SOUNDNODE.CPP|E:\MPDP\CA2\TOMPATZIL-CA2\TOMPATZIL-CA2\TEXTNODE.CPP|E:\MPDP\CA2\TOMPATZIL-CA2\TOMPATZIL-CA2\TROOPER.CPP|E:\MPDP\CA2\TOMPATZIL-CA2\TOMPATZIL-CA2\TROOPER.HPP|E:\MPDP\CA2\TOMPATZIL-CA2\TOMPATZIL-CA2\WORLD.CPP
E:\MPDP\CA2\TOMPATZIL-CA2\TOMPATZIL-CA2\DEBUG\VC141.PDB
E:\MPDP\CA2\TOMPATZIL-CA2\TOMPATZIL-CA2\DEBUG\VC141.IDB
E:\MPDP\CA2\TOMPATZIL-CA2\TOMPATZIL-CA2\DEBUG\TROOPER.OBJ
E:\MPDP\CA2\TOMPATZIL-CA2\TOMPATZIL-CA2\DEBUG\COMMAND.OBJ
E:\MPDP\CA2\TOMPATZIL-CA2\TOMPATZIL-CA2\DEBUG\COMMANDQUEUE.OBJ
E:\MPDP\CA2\TOMPATZIL-CA2\TOMPATZIL-CA2\DEBUG\EMITTERNODE.OBJ
E:\MPDP\CA2\TOMPATZIL-CA2\TOMPATZIL-CA2\DEBUG\ENTITY.OBJ
E:\MPDP\CA2\TOMPATZIL-CA2\TOMPATZIL-CA2\DEBUG\GAMEOVERSTATE.OBJ
E:\MPDP\CA2\TOMPATZIL-CA2\TOMPATZIL-CA2\DEBUG\MAIN.OBJ
E:\MPDP\CA2\TOMPATZIL-CA2\TOMPATZIL-CA2\DEBUG\PARTICLENODE.OBJ
E:\MPDP\CA2\TOMPATZIL-CA2\TOMPATZIL-CA2\DEBUG\PICKUP.OBJ
E:\MPDP\CA2\TOMPATZIL-CA2\TOMPATZIL-CA2\DEBUG\PROJECTILE.OBJ
E:\MPDP\CA2\TOMPATZIL-CA2\TOMPATZIL-CA2\DEBUG\SCENENODE.OBJ
E:\MPDP\CA2\TOMPATZIL-CA2\TOMPATZIL-CA2\DEBUG\TEXTNODE.OBJ
^E:\MPDP\CA2\TOMPATZIL-CA2\TOMPATZIL-CA2\APPLICATION.CPP|E:\MPDP\CA2\TOMPATZIL-CA2\TOMPATZIL-CA2\DATATABLES.CPP|E:\MPDP\CA2\TOMPATZIL-CA2\TOMPATZIL-CA2\GAMESERVER.CPP|E:\MPDP\CA2\TOMPATZIL-CA2\TOMPATZIL-CA2\GAMESTATE.CPP|E:\MPDP\CA2\TOMPATZIL-CA2\TOMPATZIL-CA2\MULTIPLAYERGAMESTATE.CPP|E:\MPDP\CA2\TOMPATZIL-CA2\TOMPATZIL-CA2\NETWORKNODE.CPP|E:\MPDP\CA2\TOMPATZIL-CA2\TOMPATZIL-CA2\PLAYER.CPP|E:\MPDP\CA2\TOMPATZIL-CA2\TOMPATZIL-CA2\SOUNDNODE.CPP|E:\MPDP\CA2\TOMPATZIL-CA2\TOMPATZIL-CA2\TROOPER.HPP|E:\MPDP\CA2\TOMPATZIL-CA2\TOMPATZIL-CA2\WORLD.CPP
E:\MPDP\CA2\TOMPATZIL-CA2\TOMPATZIL-CA2\DEBUG\VC141.PDB
E:\MPDP\CA2\TOMPATZIL-CA2\TOMPATZIL-CA2\DEBUG\VC141.IDB
E:\MPDP\CA2\TOMPATZIL-CA2\TOMPATZIL-CA2\DEBUG\SOUNDNODE.OBJ
^E:\MPDP\CA2\TOMPATZIL-CA2\TOMPATZIL-CA2\APPLICATION.CPP|E:\MPDP\CA2\TOMPATZIL-CA2\TOMPATZIL-CA2\DATATABLES.CPP|E:\MPDP\CA2\TOMPATZIL-CA2\TOMPATZIL-CA2\GAMESERVER.CPP|E:\MPDP\CA2\TOMPATZIL-CA2\TOMPATZIL-CA2\GAMESTATE.CPP|E:\MPDP\CA2\TOMPATZIL-CA2\TOMPATZIL-CA2\MULTIPLAYERGAMESTATE.CPP|E:\MPDP\CA2\TOMPATZIL-CA2\TOMPATZIL-CA2\NETWORKNODE.CPP|E:\MPDP\CA2\TOMPATZIL-CA2\TOMPATZIL-CA2\PLAYER.CPP|E:\MPDP\CA2\TOMPATZIL-CA2\TOMPATZIL-CA2\WORLD.CPP
E:\MPDP\CA2\TOMPATZIL-CA2\TOMPATZIL-CA2\DEBUG\VC141.PDB
E:\MPDP\CA2\TOMPATZIL-CA2\TOMPATZIL-CA2\DEBUG\VC141.IDB
E:\MPDP\CA2\TOMPATZIL-CA2\TOMPATZIL-CA2\DEBUG\DATATABLES.OBJ
^E:\MPDP\CA2\TOMPATZIL-CA2\TOMPATZIL-CA2\APPLICATION.CPP|E:\MPDP\CA2\TOMPATZIL-CA2\TOMPATZIL-CA2\DATATABLES.CPP|E:\MPDP\CA2\TOMPATZIL-CA2\TOMPATZIL-CA2\GAMESERVER.CPP|E:\MPDP\CA2\TOMPATZIL-CA2\TOMPATZIL-CA2\GAMESTATE.CPP|E:\MPDP\CA2\TOMPATZIL-CA2\TOMPATZIL-CA2\MULTIPLAYERGAMESTATE.CPP|E:\MPDP\CA2\TOMPATZIL-CA2\TOMPATZIL-CA2\NETWORKNODE.CPP|E:\MPDP\CA2\TOMPATZIL-CA2\TOMPATZIL-CA2\PICKUP.CPP|E:\MPDP\CA2\TOMPATZIL-CA2\TOMPATZIL-CA2\PLAYER.CPP|E:\MPDP\CA2\TOMPATZIL-CA2\TOMPATZIL-CA2\TROOPER.HPP|E:\MPDP\CA2\TOMPATZIL-CA2\TOMPATZIL-CA2\WORLD.CPP
E:\MPDP\CA2\TOMPATZIL-CA2\TOMPATZIL-CA2\DEBUG\VC141.PDB
E:\MPDP\CA2\TOMPATZIL-CA2\TOMPATZIL-CA2\DEBUG\VC141.IDB
^E:\MPDP\CA2\TOMPATZIL-CA2\TOMPATZIL-CA2\APPLICATION.CPP|E:\MPDP\CA2\TOMPATZIL-CA2\TOMPATZIL-CA2\DATATABLES.CPP|E:\MPDP\CA2\TOMPATZIL-CA2\TOMPATZIL-CA2\GAMESERVER.CPP|E:\MPDP\CA2\TOMPATZIL-CA2\TOMPATZIL-CA2\GAMESTATE.CPP|E:\MPDP\CA2\TOMPATZIL-CA2\TOMPATZIL-CA2\MULTIPLAYERGAMESTATE.CPP|E:\MPDP\CA2\TOMPATZIL-CA2\TOMPATZIL-CA2\NETWORKNODE.CPP|E:\MPDP\CA2\TOMPATZIL-CA2\TOMPATZIL-CA2\PICKUP.CPP|E:\MPDP\CA2\TOMPATZIL-CA2\TOMPATZIL-CA2\PLAYER.CPP|E:\MPDP\CA2\TOMPATZIL-CA2\TOMPATZIL-CA2\WORLD.CPP
E:\MPDP\CA2\TOMPATZIL-CA2\TOMPATZIL-CA2\DEBUG\VC141.PDB
E:\MPDP\CA2\TOMPATZIL-CA2\TOMPATZIL-CA2\DEBUG\VC141.IDB
^E:\MPDP\CA2\TOMPATZIL-CA2\TOMPATZIL-CA2\APPLICATION.CPP|E:\MPDP\CA2\TOMPATZIL-CA2\TOMPATZIL-CA2\DATATABLES.CPP|E:\MPDP\CA2\TOMPATZIL-CA2\TOMPATZIL-CA2\GAMESERVER.CPP|E:\MPDP\CA2\TOMPATZIL-CA2\TOMPATZIL-CA2\GAMESTATE.CPP|E:\MPDP\CA2\TOMPATZIL-CA2\TOMPATZIL-CA2\MULTIPLAYERGAMESTATE.CPP|E:\MPDP\CA2\TOMPATZIL-CA2\TOMPATZIL-CA2\NETWORKNODE.CPP|E:\MPDP\CA2\TOMPATZIL-CA2\TOMPATZIL-CA2\PARTICLENODE.CPP|E:\MPDP\CA2\TOMPATZIL-CA2\TOMPATZIL-CA2\PICKUP.CPP|E:\MPDP\CA2\TOMPATZIL-CA2\TOMPATZIL-CA2\PLAYER.CPP|E:\MPDP\CA2\TOMPATZIL-CA2\TOMPATZIL-CA2\PROJECTILE.CPP|E:\MPDP\CA2\TOMPATZIL-CA2\TOMPATZIL-CA2\TROOPER.HPP|E:\MPDP\CA2\TOMPATZIL-CA2\TOMPATZIL-CA2\WORLD.CPP
E:\MPDP\CA2\TOMPATZIL-CA2\TOMPATZIL-CA2\DEBUG\VC141.PDB
E:\MPDP\CA2\TOMPATZIL-CA2\TOMPATZIL-CA2\DEBUG\VC141.IDB
E:\MPDP\CA2\TOMPATZIL-CA2\TOMPATZIL-CA2\DEBUG\DATATABLES.OBJ
E:\MPDP\CA2\TOMPATZIL-CA2\TOMPATZIL-CA2\DEBUG\PARTICLENODE.OBJ
E:\MPDP\CA2\TOMPATZIL-CA2\TOMPATZIL-CA2\DEBUG\PICKUP.OBJ
E:\MPDP\CA2\TOMPATZIL-CA2\TOMPATZIL-CA2\DEBUG\PROJECTILE.OBJ
^E:\MPDP\CA2\TOMPATZIL-CA2\TOMPATZIL-CA2\APPLICATION.CPP|E:\MPDP\CA2\TOMPATZIL-CA2\TOMPATZIL-CA2\DATATABLES.CPP|E:\MPDP\CA2\TOMPATZIL-CA2\TOMPATZIL-CA2\GAMESERVER.CPP|E:\MPDP\CA2\TOMPATZIL-CA2\TOMPATZIL-CA2\GAMESTATE.CPP|E:\MPDP\CA2\TOMPATZIL-CA2\TOMPATZIL-CA2\MULTIPLAYERGAMESTATE.CPP|E:\MPDP\CA2\TOMPATZIL-CA2\TOMPATZIL-CA2\NETWORKNODE.CPP|E:\MPDP\CA2\TOMPATZIL-CA2\TOMPATZIL-CA2\PARTICLENODE.CPP|E:\MPDP\CA2\TOMPATZIL-CA2\TOMPATZIL-CA2\PICKUP.CPP|E:\MPDP\CA2\TOMPATZIL-CA2\TOMPATZIL-CA2\PLAYER.CPP|E:\MPDP\CA2\TOMPATZIL-CA2\TOMPATZIL-CA2\PROJECTILE.CPP|E:\MPDP\CA2\TOMPATZIL-CA2\TOMPATZIL-CA2\WORLD.CPP
E:\MPDP\CA2\TOMPATZIL-CA2\TOMPATZIL-CA2\DEBUG\VC141.PDB
E:\MPDP\CA2\TOMPATZIL-CA2\TOMPATZIL-CA2\DEBUG\VC141.IDB
^E:\MPDP\CA2\TOMPATZIL-CA2\TOMPATZIL-CA2\APPLICATION.CPP|E:\MPDP\CA2\TOMPATZIL-CA2\TOMPATZIL-CA2\GAMESERVER.CPP|E:\MPDP\CA2\TOMPATZIL-CA2\TOMPATZIL-CA2\GAMESTATE.CPP|E:\MPDP\CA2\TOMPATZIL-CA2\TOMPATZIL-CA2\MULTIPLAYERGAMESTATE.CPP|E:\MPDP\CA2\TOMPATZIL-CA2\TOMPATZIL-CA2\NETWORKNODE.CPP|E:\MPDP\CA2\TOMPATZIL-CA2\TOMPATZIL-CA2\PLAYER.CPP|E:\MPDP\CA2\TOMPATZIL-CA2\TOMPATZIL-CA2\TROOPER.HPP|E:\MPDP\CA2\TOMPATZIL-CA2\TOMPATZIL-CA2\WORLD.CPP
E:\MPDP\CA2\TOMPATZIL-CA2\TOMPATZIL-CA2\DEBUG\VC141.PDB
E:\MPDP\CA2\TOMPATZIL-CA2\TOMPATZIL-CA2\DEBUG\VC141.IDB
^E:\MPDP\CA2\TOMPATZIL-CA2\TOMPATZIL-CA2\APPLICATION.CPP|E:\MPDP\CA2\TOMPATZIL-CA2\TOMPATZIL-CA2\GAMESERVER.CPP|E:\MPDP\CA2\TOMPATZIL-CA2\TOMPATZIL-CA2\GAMESTATE.CPP|E:\MPDP\CA2\TOMPATZIL-CA2\TOMPATZIL-CA2\MULTIPLAYERGAMESTATE.CPP|E:\MPDP\CA2\TOMPATZIL-CA2\TOMPATZIL-CA2\NETWORKNODE.CPP|E:\MPDP\CA2\TOMPATZIL-CA2\TOMPATZIL-CA2\PLAYER.CPP|E:\MPDP\CA2\TOMPATZIL-CA2\TOMPATZIL-CA2\TROOPER.CPP|E:\MPDP\CA2\TOMPATZIL-CA2\TOMPATZIL-CA2\WORLD.CPP
E:\MPDP\CA2\TOMPATZIL-CA2\TOMPATZIL-CA2\DEBUG\VC141.PDB
E:\MPDP\CA2\TOMPATZIL-CA2\TOMPATZIL-CA2\DEBUG\VC141.IDB
